{
  "unpublishedCollection": {
    "name": "JSObject1",
    "pageId": "Public.users",
    "pluginId": "js-plugin",
    "pluginType": "JS",
    "actions": [],
    "archivedActions": [],
    "body": "export default {\n\tmyVar1: [],\n\tmyVar2: {},\n\tmyFun1: () => {\n\t\t//write code here\n\t\treturn 11;\n\t},\n\tmyFun2: async () => {\n\t\t//use async-await or promises\n\t\treturn 10;\n\t}\n}",
    "variables": [
      {
        "name": "myVar1",
        "value": "[]"
      },
      {
        "name": "myVar2",
        "value": "{}"
      }
    ]
  },
  "id": "Public.users_JSObject1",
  "deleted": false,
  "gitSyncId": "62bc3833f22d381d49ab2037_62bc399ff053c4364ec1b1fc"
}